-- Merging decision tree log ---
manifest
ADDED from D:\StudioProjects\gelatogallery\app\src\main\AndroidManifest.xml:2:1-35:12
INJECTED from D:\StudioProjects\gelatogallery\app\src\main\AndroidManifest.xml:2:1-35:12
INJECTED from D:\StudioProjects\gelatogallery\app\src\main\AndroidManifest.xml:2:1-35:12
INJECTED from D:\StudioProjects\gelatogallery\app\src\main\AndroidManifest.xml:2:1-35:12
MERGED from [com.google.android.material:material:1.3.0] C:\Users\Narendra Soni\.gradle\caches\transforms-2\files-2.1\0b040ae6fd7360855475a012c5af81a6\material-1.3.0\AndroidManifest.xml:17:1-24:12
MERGED from [androidx.constraintlayout:constraintlayout:2.0.4] C:\Users\Narendra Soni\.gradle\caches\transforms-2\files-2.1\73327337a728e12c5c3cdecdb4b7e327\constraintlayout-2.0.4\AndroidManifest.xml:2:1-11:12
MERGED from [androidx.appcompat:appcompat:1.2.0] C:\Users\Narendra Soni\.gradle\caches\transforms-2\files-2.1\44b21666f861b2b454523071d69d07d7\appcompat-1.2.0\AndroidManifest.xml:17:1-24:12
MERGED from [com.intuit.sdp:sdp-android:1.0.6] C:\Users\Narendra Soni\.gradle\caches\transforms-2\files-2.1\a655d297fbfdd588fa27bc2ab896e7f2\jetified-sdp-android-1.0.6\AndroidManifest.xml:2:1-11:12
MERGED from [com.intuit.ssp:ssp-android:1.0.6] C:\Users\Narendra Soni\.gradle\caches\transforms-2\files-2.1\c431f0f92a1a75963e5ad30e847de171\jetified-ssp-android-1.0.6\AndroidManifest.xml:2:1-11:12
MERGED from [com.github.okaybroda:ImageZoom:1.1.0] C:\Users\Narendra Soni\.gradle\caches\transforms-2\files-2.1\bdc90abcd075ff84878d24982096852f\jetified-ImageZoom-1.1.0\AndroidManifest.xml:2:1-14:12
MERGED from [com.yarolegovich:discrete-scrollview:1.5.1] C:\Users\Narendra Soni\.gradle\caches\transforms-2\files-2.1\8c5c8be9cb7346aac225a6bd92b5ef3a\jetified-discrete-scrollview-1.5.1\AndroidManifest.xml:2:1-11:12
MERGED from [com.github.bumptech.glide:glide:4.12.0] C:\Users\Narendra Soni\.gradle\caches\transforms-2\files-2.1\acdb25422962c481d6097055442e048f\jetified-glide-4.12.0\AndroidManifest.xml:2:1-12:12
MERGED from [com.github.chrisbanes:PhotoView:2.0.0] C:\Users\Narendra Soni\.gradle\caches\transforms-2\files-2.1\9784b2a90febe63046cdf6770ae3113a\jetified-PhotoView-2.0.0\AndroidManifest.xml:2:1-12:12
MERGED from [androidx.cursoradapter:cursoradapter:1.0.0] C:\Users\Narendra Soni\.gradle\caches\transforms-2\files-2.1\082141e7a08ecc0568dc277abb6b2eb2\cursoradapter-1.0.0\AndroidManifest.xml:17:1-22:12
MERGED from [androidx.viewpager2:viewpager2:1.0.0] C:\Users\Narendra Soni\.gradle\caches\transforms-2\files-2.1\3b91b187821fc6e4f6300506297b769e\jetified-viewpager2-1.0.0\AndroidManifest.xml:17:1-24:12
MERGED from [androidx.fragment:fragment:1.1.0] C:\Users\Narendra Soni\.gradle\caches\transforms-2\files-2.1\2caca0665cfc150845d481add640d717\fragment-1.1.0\AndroidManifest.xml:17:1-24:12
MERGED from [androidx.appcompat:appcompat-resources:1.2.0] C:\Users\Narendra Soni\.gradle\caches\transforms-2\files-2.1\78be485c09b159ccd6437b5ce26410a0\jetified-appcompat-resources-1.2.0\AndroidManifest.xml:17:1-24:12
MERGED from [androidx.drawerlayout:drawerlayout:1.0.0] C:\Users\Narendra Soni\.gradle\caches\transforms-2\files-2.1\90ad92d9d7e544d3d7a553e07e526cde\drawerlayout-1.0.0\AndroidManifest.xml:17:1-22:12
MERGED from [androidx.cardview:cardview:1.0.0] C:\Users\Narendra Soni\.gradle\caches\transforms-2\files-2.1\6a8e87f523c55e5b29d9c4a3f69e8c47\cardview-1.0.0\AndroidManifest.xml:17:1-22:12
MERGED from [androidx.coordinatorlayout:coordinatorlayout:1.1.0] C:\Users\Narendra Soni\.gradle\caches\transforms-2\files-2.1\5fcf58f467c61301f7dd22175ddca6ba\coordinatorlayout-1.1.0\AndroidManifest.xml:17:1-24:12
MERGED from [androidx.transition:transition:1.2.0] C:\Users\Narendra Soni\.gradle\caches\transforms-2\files-2.1\b154dbc73687587a7ce14e229cc71d1e\transition-1.2.0\AndroidManifest.xml:17:1-24:12
MERGED from [androidx.vectordrawable:vectordrawable-animated:1.1.0] C:\Users\Narendra Soni\.gradle\caches\transforms-2\files-2.1\9d3d448a3878af78f8d5e2175d6f4332\vectordrawable-animated-1.1.0\AndroidManifest.xml:17:1-24:12
MERGED from [androidx.vectordrawable:vectordrawable:1.1.0] C:\Users\Narendra Soni\.gradle\caches\transforms-2\files-2.1\a5f1739a336003917307af1b7a40c6ec\vectordrawable-1.1.0\AndroidManifest.xml:17:1-24:12
MERGED from [androidx.dynamicanimation:dynamicanimation:1.0.0] C:\Users\Narendra Soni\.gradle\caches\transforms-2\files-2.1\fcc32fb6a5b1c720640eae2793bf295e\dynamicanimation-1.0.0\AndroidManifest.xml:17:1-22:12
MERGED from [androidx.legacy:legacy-support-core-utils:1.0.0] C:\Users\Narendra Soni\.gradle\caches\transforms-2\files-2.1\9b319768499df63b1d0933a3c55ff3e7\legacy-support-core-utils-1.0.0\AndroidManifest.xml:17:1-22:12
MERGED from [androidx.viewpager:viewpager:1.0.0] C:\Users\Narendra Soni\.gradle\caches\transforms-2\files-2.1\921fb1c1970f14455564b73ac43ed75b\viewpager-1.0.0\AndroidManifest.xml:17:1-22:12
MERGED from [androidx.loader:loader:1.0.0] C:\Users\Narendra Soni\.gradle\caches\transforms-2\files-2.1\19ba019dbf22e650e8e95d7507462ba8\loader-1.0.0\AndroidManifest.xml:17:1-22:12
MERGED from [androidx.activity:activity:1.0.0] C:\Users\Narendra Soni\.gradle\caches\transforms-2\files-2.1\1c867de8727b52b88cec2ad3aed090ac\jetified-activity-1.0.0\AndroidManifest.xml:17:1-24:12
MERGED from [androidx.recyclerview:recyclerview:1.1.0] C:\Users\Narendra Soni\.gradle\caches\transforms-2\files-2.1\76a75c6502d93031e6f1d463ce4e8940\recyclerview-1.1.0\AndroidManifest.xml:17:1-24:12
MERGED from [androidx.customview:customview:1.0.0] C:\Users\Narendra Soni\.gradle\caches\transforms-2\files-2.1\4d3225ea5d57f620bf5356e2a6f066d6\customview-1.0.0\AndroidManifest.xml:17:1-22:12
MERGED from [androidx.core:core:1.3.1] C:\Users\Narendra Soni\.gradle\caches\transforms-2\files-2.1\8dbd859d1cd89239b42e7382b4fc40d7\core-1.3.1\AndroidManifest.xml:17:1-26:12
MERGED from [com.github.bumptech.glide:gifdecoder:4.12.0] C:\Users\Narendra Soni\.gradle\caches\transforms-2\files-2.1\259d6ac788dc5ebe081349befc6dd85e\jetified-gifdecoder-4.12.0\AndroidManifest.xml:2:1-11:12
MERGED from [androidx.exifinterface:exifinterface:1.2.0] C:\Users\Narendra Soni\.gradle\caches\transforms-2\files-2.1\d08f0cb30559fc3e5877703ddc858255\exifinterface-1.2.0\AndroidManifest.xml:17:1-24:12
MERGED from [androidx.versionedparcelable:versionedparcelable:1.1.0] C:\Users\Narendra Soni\.gradle\caches\transforms-2\files-2.1\1b49f6b12087442447a2c9046372b97f\versionedparcelable-1.1.0\AndroidManifest.xml:17:1-27:12
MERGED from [androidx.documentfile:documentfile:1.0.0] C:\Users\Narendra Soni\.gradle\caches\transforms-2\files-2.1\07966c8c4706ffeaf638d555f4c86fb0\documentfile-1.0.0\AndroidManifest.xml:17:1-22:12
MERGED from [androidx.localbroadcastmanager:localbroadcastmanager:1.0.0] C:\Users\Narendra Soni\.gradle\caches\transforms-2\files-2.1\41c41c2fbc05e9a19fa443c48f799c3d\localbroadcastmanager-1.0.0\AndroidManifest.xml:17:1-22:12
MERGED from [androidx.print:print:1.0.0] C:\Users\Narendra Soni\.gradle\caches\transforms-2\files-2.1\634f2f03e50a0eb4514a8d791ceb2f13\print-1.0.0\AndroidManifest.xml:17:1-22:12
MERGED from [androidx.lifecycle:lifecycle-runtime:2.1.0] C:\Users\Narendra Soni\.gradle\caches\transforms-2\files-2.1\a5508913c832bc0c65ebd72baf7fb6d8\lifecycle-runtime-2.1.0\AndroidManifest.xml:17:1-22:12
MERGED from [androidx.lifecycle:lifecycle-viewmodel:2.1.0] C:\Users\Narendra Soni\.gradle\caches\transforms-2\files-2.1\384d88a73e203b8300027f46f36e4e61\lifecycle-viewmodel-2.1.0\AndroidManifest.xml:17:1-22:12
MERGED from [androidx.savedstate:savedstate:1.0.0] C:\Users\Narendra Soni\.gradle\caches\transforms-2\files-2.1\ac846bd1991b3727d0d9b0a2719ca5c8\jetified-savedstate-1.0.0\AndroidManifest.xml:17:1-24:12
MERGED from [androidx.interpolator:interpolator:1.0.0] C:\Users\Narendra Soni\.gradle\caches\transforms-2\files-2.1\054d779a91766207571d826869795163\interpolator-1.0.0\AndroidManifest.xml:17:1-22:12
MERGED from [androidx.lifecycle:lifecycle-livedata:2.0.0] C:\Users\Narendra Soni\.gradle\caches\transforms-2\files-2.1\5e93b9f41c3983a761aa6e19533f24ec\lifecycle-livedata-2.0.0\AndroidManifest.xml:17:1-22:12
MERGED from [androidx.lifecycle:lifecycle-livedata-core:2.0.0] C:\Users\Narendra Soni\.gradle\caches\transforms-2\files-2.1\1435e0b5216c3fd72a2d6579c29d3ee1\lifecycle-livedata-core-2.0.0\AndroidManifest.xml:17:1-22:12
MERGED from [androidx.arch.core:core-runtime:2.0.0] C:\Users\Narendra Soni\.gradle\caches\transforms-2\files-2.1\035487676af6db782633ffbdc1d98b21\core-runtime-2.0.0\AndroidManifest.xml:17:1-22:12
MERGED from [androidx.annotation:annotation-experimental:1.0.0] C:\Users\Narendra Soni\.gradle\caches\transforms-2\files-2.1\3fd5b4b866d23b43b0e15439a0ee99e7\jetified-annotation-experimental-1.0.0\AndroidManifest.xml:17:1-24:12
INJECTED from D:\StudioProjects\gelatogallery\app\src\main\AndroidManifest.xml:2:1-35:12
INJECTED from D:\StudioProjects\gelatogallery\app\src\main\AndroidManifest.xml:2:1-35:12
INJECTED from D:\StudioProjects\gelatogallery\app\src\main\AndroidManifest.xml:2:1-35:12
	package
		ADDED from D:\StudioProjects\gelatogallery\app\src\main\AndroidManifest.xml:3:5-47
		INJECTED from D:\StudioProjects\gelatogallery\app\src\main\AndroidManifest.xml
		INJECTED from D:\StudioProjects\gelatogallery\app\src\main\AndroidManifest.xml
	android:versionName
		INJECTED from D:\StudioProjects\gelatogallery\app\src\main\AndroidManifest.xml
		ADDED from D:\StudioProjects\gelatogallery\app\src\main\AndroidManifest.xml:2:1-35:12
		INJECTED from D:\StudioProjects\gelatogallery\app\src\main\AndroidManifest.xml
	android:versionCode
		INJECTED from D:\StudioProjects\gelatogallery\app\src\main\AndroidManifest.xml
		ADDED from D:\StudioProjects\gelatogallery\app\src\main\AndroidManifest.xml:2:1-35:12
		INJECTED from D:\StudioProjects\gelatogallery\app\src\main\AndroidManifest.xml
	xmlns:android
		ADDED from D:\StudioProjects\gelatogallery\app\src\main\AndroidManifest.xml:2:11-69
uses-permission#android.permission.INTERNET
ADDED from D:\StudioProjects\gelatogallery\app\src\main\AndroidManifest.xml:5:5-67
	android:name
		ADDED from D:\StudioProjects\gelatogallery\app\src\main\AndroidManifest.xml:5:22-64
uses-permission#android.permission.ACCESS_NETWORK_STATE
ADDED from D:\StudioProjects\gelatogallery\app\src\main\AndroidManifest.xml:6:5-79
	android:name
		ADDED from D:\StudioProjects\gelatogallery\app\src\main\AndroidManifest.xml:6:22-76
uses-permission#android.permission.WRITE_EXTERNAL_STORAGE
ADDED from D:\StudioProjects\gelatogallery\app\src\main\AndroidManifest.xml:7:5-81
	android:name
		ADDED from D:\StudioProjects\gelatogallery\app\src\main\AndroidManifest.xml:7:22-78
uses-permission#android.permission.READ_EXTERNAL_STORAGE
ADDED from D:\StudioProjects\gelatogallery\app\src\main\AndroidManifest.xml:8:5-80
	android:name
		ADDED from D:\StudioProjects\gelatogallery\app\src\main\AndroidManifest.xml:8:22-77
application
ADDED from D:\StudioProjects\gelatogallery\app\src\main\AndroidManifest.xml:10:5-33:19
MERGED from [com.google.android.material:material:1.3.0] C:\Users\Narendra Soni\.gradle\caches\transforms-2\files-2.1\0b040ae6fd7360855475a012c5af81a6\material-1.3.0\AndroidManifest.xml:22:5-20
MERGED from [com.google.android.material:material:1.3.0] C:\Users\Narendra Soni\.gradle\caches\transforms-2\files-2.1\0b040ae6fd7360855475a012c5af81a6\material-1.3.0\AndroidManifest.xml:22:5-20
MERGED from [androidx.constraintlayout:constraintlayout:2.0.4] C:\Users\Narendra Soni\.gradle\caches\transforms-2\files-2.1\73327337a728e12c5c3cdecdb4b7e327\constraintlayout-2.0.4\AndroidManifest.xml:9:5-20
MERGED from [androidx.constraintlayout:constraintlayout:2.0.4] C:\Users\Narendra Soni\.gradle\caches\transforms-2\files-2.1\73327337a728e12c5c3cdecdb4b7e327\constraintlayout-2.0.4\AndroidManifest.xml:9:5-20
MERGED from [com.github.okaybroda:ImageZoom:1.1.0] C:\Users\Narendra Soni\.gradle\caches\transforms-2\files-2.1\bdc90abcd075ff84878d24982096852f\jetified-ImageZoom-1.1.0\AndroidManifest.xml:11:5-12:19
MERGED from [com.github.okaybroda:ImageZoom:1.1.0] C:\Users\Narendra Soni\.gradle\caches\transforms-2\files-2.1\bdc90abcd075ff84878d24982096852f\jetified-ImageZoom-1.1.0\AndroidManifest.xml:11:5-12:19
MERGED from [com.github.bumptech.glide:glide:4.12.0] C:\Users\Narendra Soni\.gradle\caches\transforms-2\files-2.1\acdb25422962c481d6097055442e048f\jetified-glide-4.12.0\AndroidManifest.xml:10:5-20
MERGED from [com.github.bumptech.glide:glide:4.12.0] C:\Users\Narendra Soni\.gradle\caches\transforms-2\files-2.1\acdb25422962c481d6097055442e048f\jetified-glide-4.12.0\AndroidManifest.xml:10:5-20
MERGED from [androidx.core:core:1.3.1] C:\Users\Narendra Soni\.gradle\caches\transforms-2\files-2.1\8dbd859d1cd89239b42e7382b4fc40d7\core-1.3.1\AndroidManifest.xml:24:5-89
MERGED from [androidx.core:core:1.3.1] C:\Users\Narendra Soni\.gradle\caches\transforms-2\files-2.1\8dbd859d1cd89239b42e7382b4fc40d7\core-1.3.1\AndroidManifest.xml:24:5-89
MERGED from [com.github.bumptech.glide:gifdecoder:4.12.0] C:\Users\Narendra Soni\.gradle\caches\transforms-2\files-2.1\259d6ac788dc5ebe081349befc6dd85e\jetified-gifdecoder-4.12.0\AndroidManifest.xml:9:5-20
MERGED from [com.github.bumptech.glide:gifdecoder:4.12.0] C:\Users\Narendra Soni\.gradle\caches\transforms-2\files-2.1\259d6ac788dc5ebe081349befc6dd85e\jetified-gifdecoder-4.12.0\AndroidManifest.xml:9:5-20
MERGED from [androidx.versionedparcelable:versionedparcelable:1.1.0] C:\Users\Narendra Soni\.gradle\caches\transforms-2\files-2.1\1b49f6b12087442447a2c9046372b97f\versionedparcelable-1.1.0\AndroidManifest.xml:24:5-25:19
MERGED from [androidx.versionedparcelable:versionedparcelable:1.1.0] C:\Users\Narendra Soni\.gradle\caches\transforms-2\files-2.1\1b49f6b12087442447a2c9046372b97f\versionedparcelable-1.1.0\AndroidManifest.xml:24:5-25:19
	android:appComponentFactory
		ADDED from [androidx.core:core:1.3.1] C:\Users\Narendra Soni\.gradle\caches\transforms-2\files-2.1\8dbd859d1cd89239b42e7382b4fc40d7\core-1.3.1\AndroidManifest.xml:24:18-86
	android:supportsRtl
		ADDED from D:\StudioProjects\gelatogallery\app\src\main\AndroidManifest.xml:16:9-35
	android:label
		ADDED from D:\StudioProjects\gelatogallery\app\src\main\AndroidManifest.xml:14:9-41
	android:roundIcon
		ADDED from D:\StudioProjects\gelatogallery\app\src\main\AndroidManifest.xml:15:9-54
	android:icon
		ADDED from D:\StudioProjects\gelatogallery\app\src\main\AndroidManifest.xml:13:9-43
	android:allowBackup
		ADDED from D:\StudioProjects\gelatogallery\app\src\main\AndroidManifest.xml:12:9-35
	android:theme
		ADDED from D:\StudioProjects\gelatogallery\app\src\main\AndroidManifest.xml:17:9-51
	android:name
		ADDED from D:\StudioProjects\gelatogallery\app\src\main\AndroidManifest.xml:11:9-38
activity#com.chaitanyadubey.gelatogallery.activity.FullScreenImageActivity
ADDED from D:\StudioProjects\gelatogallery\app\src\main\AndroidManifest.xml:18:9-22:81
	android:parentActivityName
		ADDED from D:\StudioProjects\gelatogallery\app\src\main\AndroidManifest.xml:22:13-69
	android:configChanges
		ADDED from D:\StudioProjects\gelatogallery\app\src\main\AndroidManifest.xml:20:13-74
	android:name
		ADDED from D:\StudioProjects\gelatogallery\app\src\main\AndroidManifest.xml:19:13-61
activity#com.chaitanyadubey.gelatogallery.activity.DashboardActivity
ADDED from D:\StudioProjects\gelatogallery\app\src\main\AndroidManifest.xml:23:9-25:77
	android:configChanges
		ADDED from D:\StudioProjects\gelatogallery\app\src\main\AndroidManifest.xml:25:13-74
	android:name
		ADDED from D:\StudioProjects\gelatogallery\app\src\main\AndroidManifest.xml:24:13-55
activity#com.chaitanyadubey.gelatogallery.activity.SplashActivity
ADDED from D:\StudioProjects\gelatogallery\app\src\main\AndroidManifest.xml:26:9-32:20
	android:name
		ADDED from D:\StudioProjects\gelatogallery\app\src\main\AndroidManifest.xml:26:19-58
intent-filter#action:name:android.intent.action.MAIN+category:name:android.intent.category.LAUNCHER
ADDED from D:\StudioProjects\gelatogallery\app\src\main\AndroidManifest.xml:27:13-31:29
action#android.intent.action.MAIN
ADDED from D:\StudioProjects\gelatogallery\app\src\main\AndroidManifest.xml:28:17-69
	android:name
		ADDED from D:\StudioProjects\gelatogallery\app\src\main\AndroidManifest.xml:28:25-66
category#android.intent.category.LAUNCHER
ADDED from D:\StudioProjects\gelatogallery\app\src\main\AndroidManifest.xml:30:17-77
	android:name
		ADDED from D:\StudioProjects\gelatogallery\app\src\main\AndroidManifest.xml:30:27-74
uses-sdk
INJECTED from D:\StudioProjects\gelatogallery\app\src\main\AndroidManifest.xml reason: use-sdk injection requested
INJECTED from D:\StudioProjects\gelatogallery\app\src\main\AndroidManifest.xml
INJECTED from D:\StudioProjects\gelatogallery\app\src\main\AndroidManifest.xml
MERGED from [com.google.android.material:material:1.3.0] C:\Users\Narendra Soni\.gradle\caches\transforms-2\files-2.1\0b040ae6fd7360855475a012c5af81a6\material-1.3.0\AndroidManifest.xml:20:5-44
MERGED from [com.google.android.material:material:1.3.0] C:\Users\Narendra Soni\.gradle\caches\transforms-2\files-2.1\0b040ae6fd7360855475a012c5af81a6\material-1.3.0\AndroidManifest.xml:20:5-44
MERGED from [androidx.constraintlayout:constraintlayout:2.0.4] C:\Users\Narendra Soni\.gradle\caches\transforms-2\files-2.1\73327337a728e12c5c3cdecdb4b7e327\constraintlayout-2.0.4\AndroidManifest.xml:5:5-7:41
MERGED from [androidx.constraintlayout:constraintlayout:2.0.4] C:\Users\Narendra Soni\.gradle\caches\transforms-2\files-2.1\73327337a728e12c5c3cdecdb4b7e327\constraintlayout-2.0.4\AndroidManifest.xml:5:5-7:41
MERGED from [androidx.appcompat:appcompat:1.2.0] C:\Users\Narendra Soni\.gradle\caches\transforms-2\files-2.1\44b21666f861b2b454523071d69d07d7\appcompat-1.2.0\AndroidManifest.xml:20:5-22:41
MERGED from [androidx.appcompat:appcompat:1.2.0] C:\Users\Narendra Soni\.gradle\caches\transforms-2\files-2.1\44b21666f861b2b454523071d69d07d7\appcompat-1.2.0\AndroidManifest.xml:20:5-22:41
MERGED from [com.intuit.sdp:sdp-android:1.0.6] C:\Users\Narendra Soni\.gradle\caches\transforms-2\files-2.1\a655d297fbfdd588fa27bc2ab896e7f2\jetified-sdp-android-1.0.6\AndroidManifest.xml:7:5-9:41
MERGED from [com.intuit.sdp:sdp-android:1.0.6] C:\Users\Narendra Soni\.gradle\caches\transforms-2\files-2.1\a655d297fbfdd588fa27bc2ab896e7f2\jetified-sdp-android-1.0.6\AndroidManifest.xml:7:5-9:41
MERGED from [com.intuit.ssp:ssp-android:1.0.6] C:\Users\Narendra Soni\.gradle\caches\transforms-2\files-2.1\c431f0f92a1a75963e5ad30e847de171\jetified-ssp-android-1.0.6\AndroidManifest.xml:7:5-9:41
MERGED from [com.intuit.ssp:ssp-android:1.0.6] C:\Users\Narendra Soni\.gradle\caches\transforms-2\files-2.1\c431f0f92a1a75963e5ad30e847de171\jetified-ssp-android-1.0.6\AndroidManifest.xml:7:5-9:41
MERGED from [com.github.okaybroda:ImageZoom:1.1.0] C:\Users\Narendra Soni\.gradle\caches\transforms-2\files-2.1\bdc90abcd075ff84878d24982096852f\jetified-ImageZoom-1.1.0\AndroidManifest.xml:7:5-9:41
MERGED from [com.github.okaybroda:ImageZoom:1.1.0] C:\Users\Narendra Soni\.gradle\caches\transforms-2\files-2.1\bdc90abcd075ff84878d24982096852f\jetified-ImageZoom-1.1.0\AndroidManifest.xml:7:5-9:41
MERGED from [com.yarolegovich:discrete-scrollview:1.5.1] C:\Users\Narendra Soni\.gradle\caches\transforms-2\files-2.1\8c5c8be9cb7346aac225a6bd92b5ef3a\jetified-discrete-scrollview-1.5.1\AndroidManifest.xml:7:5-9:41
MERGED from [com.yarolegovich:discrete-scrollview:1.5.1] C:\Users\Narendra Soni\.gradle\caches\transforms-2\files-2.1\8c5c8be9cb7346aac225a6bd92b5ef3a\jetified-discrete-scrollview-1.5.1\AndroidManifest.xml:7:5-9:41
MERGED from [com.github.bumptech.glide:glide:4.12.0] C:\Users\Narendra Soni\.gradle\caches\transforms-2\files-2.1\acdb25422962c481d6097055442e048f\jetified-glide-4.12.0\AndroidManifest.xml:6:5-8:41
MERGED from [com.github.bumptech.glide:glide:4.12.0] C:\Users\Narendra Soni\.gradle\caches\transforms-2\files-2.1\acdb25422962c481d6097055442e048f\jetified-glide-4.12.0\AndroidManifest.xml:6:5-8:41
MERGED from [com.github.chrisbanes:PhotoView:2.0.0] C:\Users\Narendra Soni\.gradle\caches\transforms-2\files-2.1\9784b2a90febe63046cdf6770ae3113a\jetified-PhotoView-2.0.0\AndroidManifest.xml:8:5-10:41
MERGED from [com.github.chrisbanes:PhotoView:2.0.0] C:\Users\Narendra Soni\.gradle\caches\transforms-2\files-2.1\9784b2a90febe63046cdf6770ae3113a\jetified-PhotoView-2.0.0\AndroidManifest.xml:8:5-10:41
MERGED from [androidx.cursoradapter:cursoradapter:1.0.0] C:\Users\Narendra Soni\.gradle\caches\transforms-2\files-2.1\082141e7a08ecc0568dc277abb6b2eb2\cursoradapter-1.0.0\AndroidManifest.xml:20:5-44
MERGED from [androidx.cursoradapter:cursoradapter:1.0.0] C:\Users\Narendra Soni\.gradle\caches\transforms-2\files-2.1\082141e7a08ecc0568dc277abb6b2eb2\cursoradapter-1.0.0\AndroidManifest.xml:20:5-44
MERGED from [androidx.viewpager2:viewpager2:1.0.0] C:\Users\Narendra Soni\.gradle\caches\transforms-2\files-2.1\3b91b187821fc6e4f6300506297b769e\jetified-viewpager2-1.0.0\AndroidManifest.xml:20:5-22:41
MERGED from [androidx.viewpager2:viewpager2:1.0.0] C:\Users\Narendra Soni\.gradle\caches\transforms-2\files-2.1\3b91b187821fc6e4f6300506297b769e\jetified-viewpager2-1.0.0\AndroidManifest.xml:20:5-22:41
MERGED from [androidx.fragment:fragment:1.1.0] C:\Users\Narendra Soni\.gradle\caches\transforms-2\files-2.1\2caca0665cfc150845d481add640d717\fragment-1.1.0\AndroidManifest.xml:20:5-22:41
MERGED from [androidx.fragment:fragment:1.1.0] C:\Users\Narendra Soni\.gradle\caches\transforms-2\files-2.1\2caca0665cfc150845d481add640d717\fragment-1.1.0\AndroidManifest.xml:20:5-22:41
MERGED from [androidx.appcompat:appcompat-resources:1.2.0] C:\Users\Narendra Soni\.gradle\caches\transforms-2\files-2.1\78be485c09b159ccd6437b5ce26410a0\jetified-appcompat-resources-1.2.0\AndroidManifest.xml:20:5-22:41
MERGED from [androidx.appcompat:appcompat-resources:1.2.0] C:\Users\Narendra Soni\.gradle\caches\transforms-2\files-2.1\78be485c09b159ccd6437b5ce26410a0\jetified-appcompat-resources-1.2.0\AndroidManifest.xml:20:5-22:41
MERGED from [androidx.drawerlayout:drawerlayout:1.0.0] C:\Users\Narendra Soni\.gradle\caches\transforms-2\files-2.1\90ad92d9d7e544d3d7a553e07e526cde\drawerlayout-1.0.0\AndroidManifest.xml:20:5-44
MERGED from [androidx.drawerlayout:drawerlayout:1.0.0] C:\Users\Narendra Soni\.gradle\caches\transforms-2\files-2.1\90ad92d9d7e544d3d7a553e07e526cde\drawerlayout-1.0.0\AndroidManifest.xml:20:5-44
MERGED from [androidx.cardview:cardview:1.0.0] C:\Users\Narendra Soni\.gradle\caches\transforms-2\files-2.1\6a8e87f523c55e5b29d9c4a3f69e8c47\cardview-1.0.0\AndroidManifest.xml:20:5-44
MERGED from [androidx.cardview:cardview:1.0.0] C:\Users\Narendra Soni\.gradle\caches\transforms-2\files-2.1\6a8e87f523c55e5b29d9c4a3f69e8c47\cardview-1.0.0\AndroidManifest.xml:20:5-44
MERGED from [androidx.coordinatorlayout:coordinatorlayout:1.1.0] C:\Users\Narendra Soni\.gradle\caches\transforms-2\files-2.1\5fcf58f467c61301f7dd22175ddca6ba\coordinatorlayout-1.1.0\AndroidManifest.xml:20:5-22:41
MERGED from [androidx.coordinatorlayout:coordinatorlayout:1.1.0] C:\Users\Narendra Soni\.gradle\caches\transforms-2\files-2.1\5fcf58f467c61301f7dd22175ddca6ba\coordinatorlayout-1.1.0\AndroidManifest.xml:20:5-22:41
MERGED from [androidx.transition:transition:1.2.0] C:\Users\Narendra Soni\.gradle\caches\transforms-2\files-2.1\b154dbc73687587a7ce14e229cc71d1e\transition-1.2.0\AndroidManifest.xml:20:5-22:41
MERGED from [androidx.transition:transition:1.2.0] C:\Users\Narendra Soni\.gradle\caches\transforms-2\files-2.1\b154dbc73687587a7ce14e229cc71d1e\transition-1.2.0\AndroidManifest.xml:20:5-22:41
MERGED from [androidx.vectordrawable:vectordrawable-animated:1.1.0] C:\Users\Narendra Soni\.gradle\caches\transforms-2\files-2.1\9d3d448a3878af78f8d5e2175d6f4332\vectordrawable-animated-1.1.0\AndroidManifest.xml:20:5-22:41
MERGED from [androidx.vectordrawable:vectordrawable-animated:1.1.0] C:\Users\Narendra Soni\.gradle\caches\transforms-2\files-2.1\9d3d448a3878af78f8d5e2175d6f4332\vectordrawable-animated-1.1.0\AndroidManifest.xml:20:5-22:41
MERGED from [androidx.vectordrawable:vectordrawable:1.1.0] C:\Users\Narendra Soni\.gradle\caches\transforms-2\files-2.1\a5f1739a336003917307af1b7a40c6ec\vectordrawable-1.1.0\AndroidManifest.xml:20:5-22:41
MERGED from [androidx.vectordrawable:vectordrawable:1.1.0] C:\Users\Narendra Soni\.gradle\caches\transforms-2\files-2.1\a5f1739a336003917307af1b7a40c6ec\vectordrawable-1.1.0\AndroidManifest.xml:20:5-22:41
MERGED from [androidx.dynamicanimation:dynamicanimation:1.0.0] C:\Users\Narendra Soni\.gradle\caches\transforms-2\files-2.1\fcc32fb6a5b1c720640eae2793bf295e\dynamicanimation-1.0.0\AndroidManifest.xml:20:5-44
MERGED from [androidx.dynamicanimation:dynamicanimation:1.0.0] C:\Users\Narendra Soni\.gradle\caches\transforms-2\files-2.1\fcc32fb6a5b1c720640eae2793bf295e\dynamicanimation-1.0.0\AndroidManifest.xml:20:5-44
MERGED from [androidx.legacy:legacy-support-core-utils:1.0.0] C:\Users\Narendra Soni\.gradle\caches\transforms-2\files-2.1\9b319768499df63b1d0933a3c55ff3e7\legacy-support-core-utils-1.0.0\AndroidManifest.xml:20:5-44
MERGED from [androidx.legacy:legacy-support-core-utils:1.0.0] C:\Users\Narendra Soni\.gradle\caches\transforms-2\files-2.1\9b319768499df63b1d0933a3c55ff3e7\legacy-support-core-utils-1.0.0\AndroidManifest.xml:20:5-44
MERGED from [androidx.viewpager:viewpager:1.0.0] C:\Users\Narendra Soni\.gradle\caches\transforms-2\files-2.1\921fb1c1970f14455564b73ac43ed75b\viewpager-1.0.0\AndroidManifest.xml:20:5-44
MERGED from [androidx.viewpager:viewpager:1.0.0] C:\Users\Narendra Soni\.gradle\caches\transforms-2\files-2.1\921fb1c1970f14455564b73ac43ed75b\viewpager-1.0.0\AndroidManifest.xml:20:5-44
MERGED from [androidx.loader:loader:1.0.0] C:\Users\Narendra Soni\.gradle\caches\transforms-2\files-2.1\19ba019dbf22e650e8e95d7507462ba8\loader-1.0.0\AndroidManifest.xml:20:5-44
MERGED from [androidx.loader:loader:1.0.0] C:\Users\Narendra Soni\.gradle\caches\transforms-2\files-2.1\19ba019dbf22e650e8e95d7507462ba8\loader-1.0.0\AndroidManifest.xml:20:5-44
MERGED from [androidx.activity:activity:1.0.0] C:\Users\Narendra Soni\.gradle\caches\transforms-2\files-2.1\1c867de8727b52b88cec2ad3aed090ac\jetified-activity-1.0.0\AndroidManifest.xml:20:5-22:41
MERGED from [androidx.activity:activity:1.0.0] C:\Users\Narendra Soni\.gradle\caches\transforms-2\files-2.1\1c867de8727b52b88cec2ad3aed090ac\jetified-activity-1.0.0\AndroidManifest.xml:20:5-22:41
MERGED from [androidx.recyclerview:recyclerview:1.1.0] C:\Users\Narendra Soni\.gradle\caches\transforms-2\files-2.1\76a75c6502d93031e6f1d463ce4e8940\recyclerview-1.1.0\AndroidManifest.xml:20:5-22:41
MERGED from [androidx.recyclerview:recyclerview:1.1.0] C:\Users\Narendra Soni\.gradle\caches\transforms-2\files-2.1\76a75c6502d93031e6f1d463ce4e8940\recyclerview-1.1.0\AndroidManifest.xml:20:5-22:41
MERGED from [androidx.customview:customview:1.0.0] C:\Users\Narendra Soni\.gradle\caches\transforms-2\files-2.1\4d3225ea5d57f620bf5356e2a6f066d6\customview-1.0.0\AndroidManifest.xml:20:5-44
MERGED from [androidx.customview:customview:1.0.0] C:\Users\Narendra Soni\.gradle\caches\transforms-2\files-2.1\4d3225ea5d57f620bf5356e2a6f066d6\customview-1.0.0\AndroidManifest.xml:20:5-44
MERGED from [androidx.core:core:1.3.1] C:\Users\Narendra Soni\.gradle\caches\transforms-2\files-2.1\8dbd859d1cd89239b42e7382b4fc40d7\core-1.3.1\AndroidManifest.xml:20:5-22:41
MERGED from [androidx.core:core:1.3.1] C:\Users\Narendra Soni\.gradle\caches\transforms-2\files-2.1\8dbd859d1cd89239b42e7382b4fc40d7\core-1.3.1\AndroidManifest.xml:20:5-22:41
MERGED from [com.github.bumptech.glide:gifdecoder:4.12.0] C:\Users\Narendra Soni\.gradle\caches\transforms-2\files-2.1\259d6ac788dc5ebe081349befc6dd85e\jetified-gifdecoder-4.12.0\AndroidManifest.xml:5:5-7:41
MERGED from [com.github.bumptech.glide:gifdecoder:4.12.0] C:\Users\Narendra Soni\.gradle\caches\transforms-2\files-2.1\259d6ac788dc5ebe081349befc6dd85e\jetified-gifdecoder-4.12.0\AndroidManifest.xml:5:5-7:41
MERGED from [androidx.exifinterface:exifinterface:1.2.0] C:\Users\Narendra Soni\.gradle\caches\transforms-2\files-2.1\d08f0cb30559fc3e5877703ddc858255\exifinterface-1.2.0\AndroidManifest.xml:20:5-22:41
MERGED from [androidx.exifinterface:exifinterface:1.2.0] C:\Users\Narendra Soni\.gradle\caches\transforms-2\files-2.1\d08f0cb30559fc3e5877703ddc858255\exifinterface-1.2.0\AndroidManifest.xml:20:5-22:41
MERGED from [androidx.versionedparcelable:versionedparcelable:1.1.0] C:\Users\Narendra Soni\.gradle\caches\transforms-2\files-2.1\1b49f6b12087442447a2c9046372b97f\versionedparcelable-1.1.0\AndroidManifest.xml:20:5-22:41
MERGED from [androidx.versionedparcelable:versionedparcelable:1.1.0] C:\Users\Narendra Soni\.gradle\caches\transforms-2\files-2.1\1b49f6b12087442447a2c9046372b97f\versionedparcelable-1.1.0\AndroidManifest.xml:20:5-22:41
MERGED from [androidx.documentfile:documentfile:1.0.0] C:\Users\Narendra Soni\.gradle\caches\transforms-2\files-2.1\07966c8c4706ffeaf638d555f4c86fb0\documentfile-1.0.0\AndroidManifest.xml:20:5-44
MERGED from [androidx.documentfile:documentfile:1.0.0] C:\Users\Narendra Soni\.gradle\caches\transforms-2\files-2.1\07966c8c4706ffeaf638d555f4c86fb0\documentfile-1.0.0\AndroidManifest.xml:20:5-44
MERGED from [androidx.localbroadcastmanager:localbroadcastmanager:1.0.0] C:\Users\Narendra Soni\.gradle\caches\transforms-2\files-2.1\41c41c2fbc05e9a19fa443c48f799c3d\localbroadcastmanager-1.0.0\AndroidManifest.xml:20:5-44
MERGED from [androidx.localbroadcastmanager:localbroadcastmanager:1.0.0] C:\Users\Narendra Soni\.gradle\caches\transforms-2\files-2.1\41c41c2fbc05e9a19fa443c48f799c3d\localbroadcastmanager-1.0.0\AndroidManifest.xml:20:5-44
MERGED from [androidx.print:print:1.0.0] C:\Users\Narendra Soni\.gradle\caches\transforms-2\files-2.1\634f2f03e50a0eb4514a8d791ceb2f13\print-1.0.0\AndroidManifest.xml:20:5-44
MERGED from [androidx.print:print:1.0.0] C:\Users\Narendra Soni\.gradle\caches\transforms-2\files-2.1\634f2f03e50a0eb4514a8d791ceb2f13\print-1.0.0\AndroidManifest.xml:20:5-44
MERGED from [androidx.lifecycle:lifecycle-runtime:2.1.0] C:\Users\Narendra Soni\.gradle\caches\transforms-2\files-2.1\a5508913c832bc0c65ebd72baf7fb6d8\lifecycle-runtime-2.1.0\AndroidManifest.xml:20:5-44
MERGED from [androidx.lifecycle:lifecycle-runtime:2.1.0] C:\Users\Narendra Soni\.gradle\caches\transforms-2\files-2.1\a5508913c832bc0c65ebd72baf7fb6d8\lifecycle-runtime-2.1.0\AndroidManifest.xml:20:5-44
MERGED from [androidx.lifecycle:lifecycle-viewmodel:2.1.0] C:\Users\Narendra Soni\.gradle\caches\transforms-2\files-2.1\384d88a73e203b8300027f46f36e4e61\lifecycle-viewmodel-2.1.0\AndroidManifest.xml:20:5-44
MERGED from [androidx.lifecycle:lifecycle-viewmodel:2.1.0] C:\Users\Narendra Soni\.gradle\caches\transforms-2\files-2.1\384d88a73e203b8300027f46f36e4e61\lifecycle-viewmodel-2.1.0\AndroidManifest.xml:20:5-44
MERGED from [androidx.savedstate:savedstate:1.0.0] C:\Users\Narendra Soni\.gradle\caches\transforms-2\files-2.1\ac846bd1991b3727d0d9b0a2719ca5c8\jetified-savedstate-1.0.0\AndroidManifest.xml:20:5-22:41
MERGED from [androidx.savedstate:savedstate:1.0.0] C:\Users\Narendra Soni\.gradle\caches\transforms-2\files-2.1\ac846bd1991b3727d0d9b0a2719ca5c8\jetified-savedstate-1.0.0\AndroidManifest.xml:20:5-22:41
MERGED from [androidx.interpolator:interpolator:1.0.0] C:\Users\Narendra Soni\.gradle\caches\transforms-2\files-2.1\054d779a91766207571d826869795163\interpolator-1.0.0\AndroidManifest.xml:20:5-44
MERGED from [androidx.interpolator:interpolator:1.0.0] C:\Users\Narendra Soni\.gradle\caches\transforms-2\files-2.1\054d779a91766207571d826869795163\interpolator-1.0.0\AndroidManifest.xml:20:5-44
MERGED from [androidx.lifecycle:lifecycle-livedata:2.0.0] C:\Users\Narendra Soni\.gradle\caches\transforms-2\files-2.1\5e93b9f41c3983a761aa6e19533f24ec\lifecycle-livedata-2.0.0\AndroidManifest.xml:20:5-44
MERGED from [androidx.lifecycle:lifecycle-livedata:2.0.0] C:\Users\Narendra Soni\.gradle\caches\transforms-2\files-2.1\5e93b9f41c3983a761aa6e19533f24ec\lifecycle-livedata-2.0.0\AndroidManifest.xml:20:5-44
MERGED from [androidx.lifecycle:lifecycle-livedata-core:2.0.0] C:\Users\Narendra Soni\.gradle\caches\transforms-2\files-2.1\1435e0b5216c3fd72a2d6579c29d3ee1\lifecycle-livedata-core-2.0.0\AndroidManifest.xml:20:5-44
MERGED from [androidx.lifecycle:lifecycle-livedata-core:2.0.0] C:\Users\Narendra Soni\.gradle\caches\transforms-2\files-2.1\1435e0b5216c3fd72a2d6579c29d3ee1\lifecycle-livedata-core-2.0.0\AndroidManifest.xml:20:5-44
MERGED from [androidx.arch.core:core-runtime:2.0.0] C:\Users\Narendra Soni\.gradle\caches\transforms-2\files-2.1\035487676af6db782633ffbdc1d98b21\core-runtime-2.0.0\AndroidManifest.xml:20:5-44
MERGED from [androidx.arch.core:core-runtime:2.0.0] C:\Users\Narendra Soni\.gradle\caches\transforms-2\files-2.1\035487676af6db782633ffbdc1d98b21\core-runtime-2.0.0\AndroidManifest.xml:20:5-44
MERGED from [androidx.annotation:annotation-experimental:1.0.0] C:\Users\Narendra Soni\.gradle\caches\transforms-2\files-2.1\3fd5b4b866d23b43b0e15439a0ee99e7\jetified-annotation-experimental-1.0.0\AndroidManifest.xml:20:5-22:41
MERGED from [androidx.annotation:annotation-experimental:1.0.0] C:\Users\Narendra Soni\.gradle\caches\transforms-2\files-2.1\3fd5b4b866d23b43b0e15439a0ee99e7\jetified-annotation-experimental-1.0.0\AndroidManifest.xml:20:5-22:41
INJECTED from D:\StudioProjects\gelatogallery\app\src\main\AndroidManifest.xml
INJECTED from D:\StudioProjects\gelatogallery\app\src\main\AndroidManifest.xml
	android:targetSdkVersion
		INJECTED from D:\StudioProjects\gelatogallery\app\src\main\AndroidManifest.xml
		ADDED from D:\StudioProjects\gelatogallery\app\src\main\AndroidManifest.xml
		INJECTED from D:\StudioProjects\gelatogallery\app\src\main\AndroidManifest.xml
	android:minSdkVersion
		INJECTED from D:\StudioProjects\gelatogallery\app\src\main\AndroidManifest.xml
		ADDED from D:\StudioProjects\gelatogallery\app\src\main\AndroidManifest.xml
		INJECTED from D:\StudioProjects\gelatogallery\app\src\main\AndroidManifest.xml
